Text As Data: Assignment 2
…
#identify the three most representative documents for each topic 
docdist_df <- tidy(stm_20, matrix = "theta") %>%
  merge(., topic_names_df, by = "topic") %>%
  group_by(topic) %>%
  top_n(3, gamma)

docdist_df

## # A tibble: 61 x 4
## # Groups:   topic [20]
##    topic document gamma topic_names                       
##    <int>    <int> <dbl> <chr>                             
##  1     1      962 0.876 right_woman's_choose_woman_percent
##  2     1      993 0.801 right_woman's_choose_woman_percent
##  3     1     1409 0.780 right_woman's_choose_woman_percent
##  4     2     1368 0.945 many_debate_know_procedure_go     
##  5     2     1469 0.941 many_debate_know_procedure_go     
##  6     2     1613 0.943 many_debate_know_procedure_go     
##  7     3      845 0.955 baby_procedure_specific_baby's_can
##  8     3      885 0.976 baby_procedure_specific_baby's_can
##  9     3     1561 0.975 baby_procedure_specific_baby's_can
## 10     4      836 0.961 children_child_life_us_hand       
## # ... with 51 more rows
…
